{
  "feature": "cobblemon:big_root",
  "placement": [
    {
      "type": "minecraft:count",
      "count": 4
    },
    {
      "type": "minecraft:in_square"
    },
    {
      "type": "cobblemon:beneath_heightmap",
      "heightmap": "OCEAN_FLOOR",
      "offset": -1,
      "reach": 16
    },
    {
      "type": "minecraft:height_range",
      "height": {
        "type": "minecraft:trapezoid",
        "max_inclusive": {
          "absolute": 100
        },
        "min_inclusive": {
          "absolute": 20
        }
      }
    },
    {
      "type": "minecraft:block_predicate_filter",
      "predicate": {
        "type": "minecraft:all_of",
        "predicates": [
          {
            "type": "minecraft:matching_blocks",
            "blocks": "#cobblemon:roots_spreadable",
            "offset": [0, 1, 0]
          },
          {
            "type": "minecraft:any_of",
            "predicates": [
              {
                "type": "minecraft:matching_blocks",
                "blocks": "minecraft:air"
              },
              {
                "type": "minecraft:replaceable"
              }
            ]
          }
        ]
      }
    }
  ]
}