{
  "implemented": true,
  "name": "Tinkatink",
  "nationalPokedexNumber": 957,
  "primaryType": "fairy",
  "secondaryType": "steel",
  "abilities": [
    "moldbreaker",
    "owntempo",
    "h:pickpocket"
  ],
  "baseStats": {
    "hp": 50,
    "attack": 45,
    "defence": 45,
    "special_attack": 35,
    "special_defence": 64,
    "speed": 58
  },
  "catchRate": 190,
  "maleRatio": 0,
  "baseExperienceYield": 59,
  "baseFriendship": 50,
  "evYield": {
    "hp": 0,
    "attack": 0,
    "defence": 0,
    "special_attack": 0,
    "special_defence": 1,
    "speed": 0
  },
  "experienceGroup": "medium_slow",
  "eggCycles": 20,
  "eggGroups": [
    "fairy"
  ],
  "behaviour": {
    "resting": {
      "canSleep": true,
      "willSleepOnBed": false,
      "depth": "normal",
      "light": "0-4"
    }
  },
  "moves": [
    "1:astonish",
    "1:fairywind",
    "5:babydolleyes",
    "8:metalclaw",
    "11:covet",
    "14:rocksmash",
    "17:drainingkiss",
    "21:sweetkiss",
    "24:brutalswing",
    "27:slam",
    "31:flashcannon",
    "35:playrough",
    "39:fakeout",
    "43:flatter",
    "47:skittersmack",
    "52:knockoff",
    "egg:feint",
    "egg:icehammer",
    "egg:quash",
    "tm:drainingkiss",
    "tm:encore",
    "tm:endure",
    "tm:facade",
    "tm:faketears",
    "tm:flashcannon",
    "tm:fling",
    "tm:foulplay",
    "tm:helpinghand",
    "tm:lightscreen",
    "tm:metalclaw",
    "tm:metronome",
    "tm:playrough",
    "tm:pounce",
    "tm:protect",
    "tm:reflect",
    "tm:rest",
    "tm:rockslide",
    "tm:rocktomb",
    "tm:skillswap",
    "tm:sleeptalk",
    "tm:stealthrock",
    "tm:steelbeam",
    "tm:stoneedge",
    "tm:substitute",
    "tm:swordsdance",
    "tm:terablast",
    "tm:thief",
    "tm:thunderwave"
  ],
  "labels": [
    "gen9"
  ],
  "aspects": [],
  "height": 4,
  "weight": 89,
  "evolutions": [
    {
      "id": "tinkatink_tinkatuff",
      "variant": "level_up",
      "result": "tinkatuff",
      "consumeHeldItem": false,
      "learnableMoves": [],
      "requirements": [
        {
          "variant": "level",
          "minLevel": 24
        }
      ]
    }
  ],
  "baseScale": 1.0,
  "hitbox": {
    "width": 1.0,
    "height": 1.0,
    "fixed": false
  },
  "cannotDynamax": false,
  "pokedex": [
    "cobblemon.species.tinkatink.desc"
  ]
}