{
  "baseYield": {
    "min": 2,
    "max": 3
  },
  "preferredBiomeTags": [
    "cobblemon:is_floral",
    "cobblemon:is_island",
    "cobblemon:is_magical",
    "cobblemon:is_mushroom"
  ],
  "growthTime": {
    "min": 50,
    "max": 60
  },
  "refreshRate": {
    "min": 16,
    "max": 26
  },
  "favoriteMulches": [
    "loamy",
    "peat"
  ],
  "growthFactors": [
    {
      "variant": "cobblemon:preferred_biome",
      "bonusYield": {
        "min": 1,
        "max": 2
      }
    }
  ],
  "randomizedGrowthPoints": true,
  "spawnConditions": [],
  "growthPoints": [
    {
      "position": {
        "x": 7.25,
        "y": 1.75,
        "z": 7.25
      },
      "rotation": {
        "x": 137.5,
        "y": 45.0,
        "z": 0.0
      }
    },
    {
      "position": {
        "x": 8.75,
        "y": 1.75,
        "z": 8.75
      },
      "rotation": {
        "x": -42.5,
        "y": -45.0,
        "z": 180.0
      }
    },
    {
      "position": {
        "x": 8.75,
        "y": 2.75,
        "z": 7.25
      },
      "rotation": {
        "x": 150.0,
        "y": -7.5,
        "z": -30.0
      }
    },
    {
      "position": {
        "x": 7.25,
        "y": 2.75,
        "z": 8.75
      },
      "rotation": {
        "x": -30.0,
        "y": 7.5,
        "z": -150.0
      }
    },
    {
      "position": {
        "x": 7.25,
        "y": 4.75,
        "z": 7.25
      },
      "rotation": {
        "x": 82.5,
        "y": 72.5,
        "z": -80.0
      }
    }
  ],
  "mutations": {
    "cobblemon:sitrus_berry": "cobblemon:enigma_berry",
    "cobblemon:magost_berry": "cobblemon:qualot_berry"
  },
  "sproutShape": "blossom-sprout",
  "matureShape": "blossom-mature",
  "flavors": {
    "SWEET": 25,
    "BITTER": 10
  },
  "weight": 1.0,
  "tintIndexes": [],
  "flowerModel": "cobblemon:flower.geo",
  "flowerTexture": "cobblemon:textures/berries/flower.png",
  "fruitModel": "cobblemon:roseli_berry.geo",
  "fruitTexture": "cobblemon:textures/berries/roseli.png"
}