{
  "replace": false,
  "values": [
    {
      "id": "terralith:cave/mantle_caves",
      "required": false
    },
	{
      "id": "terralith:volcanic_crater",
      "required": false
    },
	{
      "id": "terralith:volcanic_peaks",
      "required": false
    }
  ]
}
