{
  "implemented": true,
  "name": "Poliwag",
  "nationalPokedexNumber": 60,
  "primaryType": "water",
  "abilities": [
    "waterabsorb",
    "damp",
    "h:swiftswim"
  ],
  "baseStats": {
    "hp": 40,
    "attack": 50,
    "defence": 40,
    "special_attack": 40,
    "special_defence": 40,
    "speed": 90
  },
  "catchRate": 255,
  "maleRatio": 0.5,
  "shoulderMountable": false,
  "baseExperienceYield": 60,
  "experienceGroup": "medium_slow",
  "eggCycles": 20,
  "eggGroups": [
    "water_1"
  ],
  "behaviour": {
    "moving": {
      "swim": {
        "canSwimInWater": true,
        "canBreatheUnderwater": true
      }
    },
    "resting": {
      "canSleep": true,
      "willSleepOnBed": false,
      "depth": "normal",
      "light": "0-4"
    }
  },
  "moves": [
    "1:hypnosis",
    "1:watergun",
    "1:watersport",
    "6:pound",
    "11:bubble",
    "12:mudshot",
    "15:doubleslap",
    "18:bubblebeam",
    "24:raindance",
    "30:bodyslam",
    "35:wakeupslap",
    "36:earthpower",
    "41:mudbomb",
    "42:hydropump",
    "48:bellydrum",
    "54:doubleedge",
    "egg:bubblebeam",
    "egg:encore",
    "egg:endeavor",
    "egg:endure",
    "egg:haze",
    "egg:iceball",
    "egg:mindreader",
    "egg:mist",
    "egg:mudshot",
    "egg:refresh",
    "egg:splash",
    "egg:waterpulse",
    "egg:watersport",
    "tm:attract",
    "tm:blizzard",
    "tm:bodyslam",
    "tm:bulldoze",
    "tm:captivate",
    "tm:confide",
    "tm:dig",
    "tm:dive",
    "tm:doubleteam",
    "tm:earthpower",
    "tm:encore",
    "tm:endure",
    "tm:facade",
    "tm:frustration",
    "tm:hail",
    "tm:helpinghand",
    "tm:hiddenpower",
    "tm:hydropump",
    "tm:icebeam",
    "tm:icywind",
    "tm:muddywater",
    "tm:mudshot",
    "tm:naturalgift",
    "tm:protect",
    "tm:psychic",
    "tm:raindance",
    "tm:rest",
    "tm:return",
    "tm:round",
    "tm:scald",
    "tm:secretpower",
    "tm:sleeptalk",
    "tm:snore",
    "tm:substitute",
    "tm:surf",
    "tm:swagger",
    "tm:thief",
    "tm:toxic",
    "tm:waterfall",
    "tm:waterpulse",
    "tm:whirlpool",
    "tutor:amnesia",
    "tutor:attract",
    "tutor:bellydrum",
    "tutor:bide",
    "tutor:blizzard",
    "tutor:bodyslam",
    "tutor:bubble",
    "tutor:bubblebeam",
    "tutor:curse",
    "tutor:defensecurl",
    "tutor:dig",
    "tutor:dive",
    "tutor:doubleedge",
    "tutor:doubleslap",
    "tutor:doubleteam",
    "tutor:endeavor",
    "tutor:endure",
    "tutor:facade",
    "tutor:frustration",
    "tutor:haze",
    "tutor:headbutt",
    "tutor:helpinghand",
    "tutor:hiddenpower",
    "tutor:hydropump",
    "tutor:hypnosis",
    "tutor:icebeam",
    "tutor:icywind",
    "tutor:lowkick",
    "tutor:mimic",
    "tutor:mindreader",
    "tutor:mist",
    "tutor:pound",
    "tutor:protect",
    "tutor:psychic",
    "tutor:psywave",
    "tutor:rage",
    "tutor:raindance",
    "tutor:rest",
    "tutor:return",
    "tutor:scald",
    "tutor:skullbash",
    "tutor:sleeptalk",
    "tutor:snore",
    "tutor:splash",
    "tutor:substitute",
    "tutor:surf",
    "tutor:swagger",
    "tutor:sweetkiss",
    "tutor:takedown",
    "tutor:thief",
    "tutor:toxic",
    "tutor:waterfall",
    "tutor:watergun",
    "tutor:waterpulse",
    "tutor:whirlpool"
  ],
  "labels": [
    "gen1"
  ],
  "pokedex": [
    "cobblemon.species.poliwag.desc"
  ],
  "evolutions": [
    {
      "id": "poliwag_poliwhirl",
      "variant": "level_up",
      "result": "poliwhirl",
      "consumeHeldItem": false,
      "learnableMoves": [],
      "requirements": [
        {
          "variant": "level",
          "minLevel": 25
        }
      ]
    }
  ],
  "baseScale": 0.8,
  "hitbox": {
    "width": 0.6,
    "height": 0.8,
    "fixed": false
  },
  "baseFriendship": 50,
  "evYield": {
    "hp": 0,
    "attack": 0,
    "defence": 0,
    "special_attack": 0,
    "special_defence": 0,
    "speed": 1
  },
  "height": 6,
  "weight": 124,
  "aspects": [],
  "cannotDynamax": false
}