{
  "implemented": true,
  "name": "Venonat",
  "nationalPokedexNumber": 48,
  "primaryType": "bug",
  "secondaryType": "poison",
  "abilities": [
    "compoundeyes",
    "tintedlens",
    "h:runaway"
  ],
  "baseStats": {
    "hp": 60,
    "attack": 55,
    "defence": 50,
    "special_attack": 40,
    "special_defence": 55,
    "speed": 45
  },
  "behaviour": {
    "resting": {
      "canSleep": true,
      "willSleepOnBed": false,
      "depth": "normal",
      "light": "0-4"
    }
  },
  "catchRate": 190,
  "maleRatio": 0.5,
  "shoulderMountable": false,
  "baseExperienceYield": 61,
  "experienceGroup": "medium_fast",
  "eggCycles": 20,
  "eggGroups": [
    "bug"
  ],
  "moves": [
    "1:disable",
    "1:foresight",
    "1:tackle",
    "5:supersonic",
    "11:confusion",
    "13:poisonpowder",
    "17:psybeam",
    "23:stunspore",
    "25:bugbuzz",
    "25:signalbeam",
    "29:sleeppowder",
    "35:leechlife",
    "37:zenheadbutt",
    "41:poisonfang",
    "47:psychic",
    "egg:agility",
    "egg:batonpass",
    "egg:bugbite",
    "egg:gigadrain",
    "egg:morningsun",
    "egg:ragepowder",
    "egg:screech",
    "egg:secretpower",
    "egg:signalbeam",
    "egg:skillswap",
    "egg:toxicspikes",
    "egg:venoshock",
    "tm:acidspray",
    "tm:agility",
    "tm:attract",
    "tm:batonpass",
    "tm:bugbuzz",
    "tm:captivate",
    "tm:confide",
    "tm:confuseray",
    "tm:doubleteam",
    "tm:endure",
    "tm:energyball",
    "tm:facade",
    "tm:flash",
    "tm:frustration",
    "tm:gigadrain",
    "tm:hiddenpower",
    "tm:infestation",
    "tm:leechlife",
    "tm:naturalgift",
    "tm:nightshade",
    "tm:pounce",
    "tm:protect",
    "tm:psybeam",
    "tm:psychic",
    "tm:rest",
    "tm:return",
    "tm:round",
    "tm:secretpower",
    "tm:skillswap",
    "tm:sleeptalk",
    "tm:sludgebomb",
    "tm:solarbeam",
    "tm:strugglebug",
    "tm:substitute",
    "tm:sunnyday",
    "tm:swagger",
    "tm:swift",
    "tm:takedown",
    "tm:terablast",
    "tm:thief",
    "tm:toxic",
    "tm:toxicspikes",
    "tm:venoshock",
    "tm:zenheadbutt",
    "tutor:attract",
    "tutor:batonpass",
    "tutor:bide",
    "tutor:bugbite",
    "tutor:confusion",
    "tutor:curse",
    "tutor:disable",
    "tutor:doubleedge",
    "tutor:doubleteam",
    "tutor:endure",
    "tutor:facade",
    "tutor:flash",
    "tutor:foresight",
    "tutor:frustration",
    "tutor:gigadrain",
    "tutor:headbutt",
    "tutor:hiddenpower",
    "tutor:leechlife",
    "tutor:megadrain",
    "tutor:mimic",
    "tutor:poisonpowder",
    "tutor:protect",
    "tutor:psybeam",
    "tutor:psychic",
    "tutor:psywave",
    "tutor:rage",
    "tutor:reflect",
    "tutor:rest",
    "tutor:return",
    "tutor:screech",
    "tutor:signalbeam",
    "tutor:skillswap",
    "tutor:sleeppowder",
    "tutor:sleeptalk",
    "tutor:sludgebomb",
    "tutor:snore",
    "tutor:solarbeam",
    "tutor:stringshot",
    "tutor:stunspore",
    "tutor:substitute",
    "tutor:sunnyday",
    "tutor:supersonic",
    "tutor:swagger",
    "tutor:sweetscent",
    "tutor:swift",
    "tutor:tackle",
    "tutor:takedown",
    "tutor:thief",
    "tutor:toxic",
    "tutor:zenheadbutt"
  ],
  "labels": [
    "gen1"
  ],
  "pokedex": [
    "cobblemon.species.venonat.desc"
  ],
  "evolutions": [
    {
      "id": "venonat_venomoth",
      "variant": "level_up",
      "result": "venomoth",
      "consumeHeldItem": false,
      "learnableMoves": [
        "airslash"
      ],
      "requirements": [
        {
          "variant": "level",
          "minLevel": 31
        }
      ]
    }
  ],
  "baseScale": 1.1,
  "hitbox": {
    "width": 0.6,
    "height": 0.6,
    "fixed": false
  },
  "baseFriendship": 70,
  "evYield": {
    "hp": 0,
    "attack": 0,
    "defence": 0,
    "special_attack": 0,
    "special_defence": 1,
    "speed": 0
  },
  "height": 10,
  "weight": 300,
  "aspects": [],
  "cannotDynamax": false
}