{
  "implemented": true,
  "name": "Chimecho",
  "nationalPokedexNumber": 358,
  "primaryType": "psychic",
  "abilities": [
    "levitate"
  ],
  "baseStats": {
    "hp": 75,
    "attack": 50,
    "defence": 80,
    "special_attack": 95,
    "special_defence": 90,
    "speed": 65
  },
  "catchRate": 45,
  "maleRatio": 0.5,
  "shoulderMountable": false,
  "baseExperienceYield": 159,
  "experienceGroup": "fast",
  "eggCycles": 25,
  "eggGroups": [
    "amorphous"
  ],
  "behaviour": {
    "moving": {
      "walk": {
        "canWalk": false
      },
      "fly": {
        "canFly": true
      }
    },
    "resting": {
      "canSleep": true,
      "willSleepOnBed": false,
      "depth": "normal",
      "light": "0-4"
    }
  },
  "moves": [
    "1:astonish",
    "1:confusion",
    "1:growl",
    "1:healingwish",
    "1:synchronoise",
    "1:wrap",
    "13:yawn",
    "16:psywave",
    "19:takedown",
    "22:extrasensory",
    "27:healbell",
    "32:uproar",
    "37:safeguard",
    "42:doubleedge",
    "46:psychic",
    "47:healpulse",
    "egg:cosmicpower",
    "egg:craftyshield",
    "egg:curse",
    "egg:disable",
    "egg:dreameater",
    "egg:futuresight",
    "egg:hypnosis",
    "egg:perishsong",
    "egg:recover",
    "egg:skillswap",
    "egg:storedpower",
    "egg:wish",
    "tm:attract",
    "tm:calmmind",
    "tm:captivate",
    "tm:chargebeam",
    "tm:confide",
    "tm:dazzlinggleam",
    "tm:doubleteam",
    "tm:dreameater",
    "tm:echoedvoice",
    "tm:endure",
    "tm:energyball",
    "tm:facade",
    "tm:flash",
    "tm:frustration",
    "tm:grassknot",
    "tm:hiddenpower",
    "tm:lightscreen",
    "tm:naturalgift",
    "tm:protect",
    "tm:psychic",
    "tm:psychup",
    "tm:psyshock",
    "tm:raindance",
    "tm:recycle",
    "tm:reflect",
    "tm:rest",
    "tm:return",
    "tm:round",
    "tm:safeguard",
    "tm:secretpower",
    "tm:shadowball",
    "tm:shockwave",
    "tm:skillswap",
    "tm:sleeptalk",
    "tm:snatch",
    "tm:substitute",
    "tm:sunnyday",
    "tm:swagger",
    "tm:taunt",
    "tm:telekinesis",
    "tm:thunderwave",
    "tm:torment",
    "tm:toxic",
    "tm:trickroom",
    "tutor:allyswitch",
    "tutor:astonish",
    "tutor:bind",
    "tutor:defensecurl",
    "tutor:defog",
    "tutor:doubleedge",
    "tutor:dreameater",
    "tutor:endure",
    "tutor:gravity",
    "tutor:growl",
    "tutor:healbell",
    "tutor:helpinghand",
    "tutor:hypervoice",
    "tutor:hypnosis",
    "tutor:icywind",
    "tutor:knockoff",
    "tutor:laserfocus",
    "tutor:lastresort",
    "tutor:magiccoat",
    "tutor:mimic",
    "tutor:nightmare",
    "tutor:psychup",
    "tutor:recycle",
    "tutor:rollout",
    "tutor:shockwave",
    "tutor:signalbeam",
    "tutor:skillswap",
    "tutor:sleeptalk",
    "tutor:snatch",
    "tutor:snore",
    "tutor:substitute",
    "tutor:swagger",
    "tutor:telekinesis",
    "tutor:trick",
    "tutor:uproar",
    "tutor:wrap",
    "tutor:zenheadbutt"
  ],
  "behaviour": {
    "moving": {
      "fly": {
        "canFly": true
      }
    }
  },
  "labels": [
    "gen3"
  ],
  "pokedex": [
    "cobblemon.species.chimecho.desc"
  ],
  "preEvolution": "chingling",
  "evolutions": [],
  "baseScale": 0.8,
  "hitbox": {
    "width": 0.4,
    "height": 1.2,
    "fixed": false
  },
  "baseFriendship": 70,
  "evYield": {
    "hp": 0,
    "attack": 0,
    "defence": 0,
    "special_attack": 1,
    "special_defence": 1,
    "speed": 0
  },
  "height": 6,
  "weight": 10,
  "aspects": [],
  "cannotDynamax": false
}