{
  "implemented": true,
  "name": "Mightyena",
  "nationalPokedexNumber": 262,
  "primaryType": "dark",
  "abilities": [
    "intimidate",
    "quickfeet",
    "h:moxie"
  ],
  "baseStats": {
    "hp": 70,
    "attack": 90,
    "defence": 70,
    "special_attack": 60,
    "special_defence": 60,
    "speed": 70
  },
  "catchRate": 127,
  "maleRatio": 0.5,
  "shoulderMountable": false,
  "baseExperienceYield": 147,
  "experienceGroup": "medium_fast",
  "eggCycles": 15,
  "eggGroups": [
    "field"
  ],
  "moves": [
    "1:bite",
    "1:crunch",
    "1:firefang",
    "1:howl",
    "1:icefang",
    "1:sandattack",
    "1:snarl",
    "1:tackle",
    "1:thief",
    "1:thunderfang",
    "13:odorsleuth",
    "16:roar",
    "20:swagger",
    "24:assurance",
    "28:scaryface",
    "32:embargo",
    "36:taunt",
    "44:yawn",
    "48:takedown",
    "52:suckerpunch",
    "56:playrough",
    "tm:attract",
    "tm:captivate",
    "tm:confide",
    "tm:darkpulse",
    "tm:dig",
    "tm:doubleteam",
    "tm:embargo",
    "tm:endure",
    "tm:facade",
    "tm:frustration",
    "tm:gigaimpact",
    "tm:hiddenpower",
    "tm:hyperbeam",
    "tm:incinerate",
    "tm:irontail",
    "tm:naturalgift",
    "tm:payback",
    "tm:protect",
    "tm:raindance",
    "tm:rest",
    "tm:retaliate",
    "tm:return",
    "tm:roar",
    "tm:rocksmash",
    "tm:round",
    "tm:secretpower",
    "tm:shadowball",
    "tm:sleeptalk",
    "tm:snarl",
    "tm:snatch",
    "tm:strength",
    "tm:substitute",
    "tm:sunnyday",
    "tm:swagger",
    "tm:taunt",
    "tm:thief",
    "tm:torment",
    "tm:toxic",
    "tutor:bodyslam",
    "tutor:counter",
    "tutor:covet",
    "tutor:crunch",
    "tutor:darkpulse",
    "tutor:doubleedge",
    "tutor:endure",
    "tutor:firefang",
    "tutor:foulplay",
    "tutor:headbutt",
    "tutor:hypervoice",
    "tutor:icefang",
    "tutor:irontail",
    "tutor:laserfocus",
    "tutor:mimic",
    "tutor:mudslap",
    "tutor:psychup",
    "tutor:sleeptalk",
    "tutor:snatch",
    "tutor:snore",
    "tutor:spite",
    "tutor:substitute",
    "tutor:suckerpunch",
    "tutor:superfang",
    "tutor:swagger",
    "tutor:throatchop",
    "tutor:thunderfang",
    "tutor:uproar"
  ],
  "labels": [
    "gen3"
  ],
  "pokedex": [
    "cobblemon.species.mightyena.desc"
  ],
  "preEvolution": "poochyena",
  "evolutions": [],
  "baseScale": 0.7,
  "hitbox": {
    "width": 1,
    "height": 1,
    "fixed": false
  },
  "baseFriendship": 70,
  "evYield": {
    "hp": 0,
    "attack": 2,
    "defence": 0,
    "special_attack": 0,
    "special_defence": 0,
    "speed": 0
  },
  "height": 10,
  "weight": 370,
  "aspects": [],
  "cannotDynamax": false
}